Assignment-2.utf8.md
…
Since our data represnts every time a teacher sends a student to the principal there are multiple rows when the same teacher sends the same student. We want to collapse these into a single row, with a variable that shows how many times a teacher-student pair appears.

D2$stid <- as.character(D2$stid)
EDGE <- count(D2, tid, stid)

names(EDGE) <- c("from", "to", "count")
EDGE

## # A tibble: 41 x 3
##    from  to    count
##    <chr> <chr> <int>
##  1 A     18        1
##  2 A     2         1
##  3 A     22        1
##  4 A     25        2
##  5 A     3         1
##  6 A     4         2
##  7 A     5         1
##  8 B     1         2
##  9 B     12        1
## 10 B     20        1
## #  with 31 more rows
…
Part II

In Part II your task is to look up in the igraph documentation and create a graph that sizes the student vertices in terms of the number of disciplinary actions they have recieved, and the teachers in terms of the number of disciplinary actions they have given out.

student_sum<- EDGE %>% group_by(to) %>% summarise(sum(count))
names(student_sum)<-c("id","count")
teacher_sum<-EDGE %>%group_by(from)%>%summarise(sum(count))
names(teacher_sum)<-c("id","count")
vertex_new<-bind_rows(student_sum,teacher_sum)
vertex_new

## # A tibble: 30 x 2
##    id    count
##    <chr> <int>
##  1 1         3
##  2 10        2
##  3 11        1
##  4 12        1
##  5 15        2
##  6 17        1
##  7 18        2
##  8 19        1
##  9 2         2
## 10 20        1
## #  with 20 more rows
…
