Assignment 2
…
Convert DF3 to this format

DF3 <- DF3[-c(14, 43, 53, 54, 91, 118, 128, 139, 166, 207, 226), ]
DF3 %>%
  pivot_wider(names_from = lesson_name, values_from = sum_attempt)

## # A tibble: 36 x 32
## # Groups:   hash [36]
##     hash `Basic Building `Dates and Time Logic `Matrices and D
##    <int>            <int>            <int> <int>            <int>
##  1  2864               29               NA    NA               NA
##  2  4807               49               51   116               43
##  3  6487               25               NA    NA               NA
##  4  8766               NA               NA    NA               NA
##  5 11801               16               18    20               17
##  6 12264               NA               NA    NA               35
##  7 14748               29               31    62               NA
##  8 16365               NA               19    20               33
##  9 21536               NA               NA    NA               NA
## 10 24042               39               42    36               NA
## #  with 26 more rows, and 27 more variables: `Missing Values` <int>,
## #   `Subsetting Vectors` <int>, Vectors <int>, `Workspace and Files` <int>,
## #   `Grouping and C` <int>, `Grouping and Chaining with dplyr` <int>, Lo <int>,
## #   `Looking at Data` <int>, `Manipulating Data with dplyr` <int>,
## #   Subsetti <int>, `Tidying Data with tid` <int>, `Tidying Data with
## #   tidyr` <int>, Functions <int>, Base_Plotting_System <int>,
## #   Clustering_Example <int>, Exploratory_Graphs <int>,
## #   Graphics_Devices_in_R <int>, `Grouping and Chaining w` <int>,
## #   Hierarchica <int>, Hierarchical_Clustering <int>, K_Means_Clustering <int>,
…
