…
## The following objects are masked from 'package:base':
## 
##     intersect, setdiff, setequal, union

D2 <- select(D1, tid, stid)

Since our data represnts every time a teacher sends a student to the principal there are multiple rows when the same teacher sends the same student. We want to collapse these into a single row, with a variable that shows how many times a teacher-student pair appears.

EDGE <- count(D2, tid, stid)

names(EDGE) <- c("from", "to", "count")
EDGE

## # A tibble: 41 x 3
##    from  to    count
##    <fct> <fct> <int>
##  1 A     2         1
##  2 A     3         1
##  3 A     4         2
##  4 A     5         1
##  5 A     18        1
##  6 A     22        1
##  7 A     25        2
##  8 B     1         2
##  9 B     5         1
## 10 B     8         1
## # ... with 31 more rows
…
## Warning in bind_rows_(x, .id): Unequal factor levels: coercing to character

## Warning in bind_rows_(x, .id): binding character and factor vector,
## coercing into character vector

## Warning in bind_rows_(x, .id): binding character and factor vector,
## coercing into character vector

VERTEX1

## # A tibble: 30 x 2
##    id    count
##    <chr> <int>
##  1 1         3
##  2 2         2
##  3 3         2
##  4 4         3
##  5 5         3
##  6 6         1
##  7 8         2
##  8 9         3
##  9 10        2
## 10 11        1
## # ... with 20 more rows
…
