…
> course_long$value <- ifelse(course_long$value == "",NA,Course_long$value)
> Cl<-na.omit(course_long)
> library(tidyr)
> D8<- tidyr::gather(D4,Full.name)
Warning message:
attributes are not identical across measure variables; they will be dropped 
> names(D8) <- c("Full.name","Course.number","Class.name")
> Student_data <- tidyr::spread(D8, Course.number, Class.name)
> Student_data <- tidyr::spread(D8,Full.name, Class.name)
> View(Student_data)
> Student_data <- tidyr::spread(D8,Full.name, Class.name)
> View(Student_data)
> ?count
> count(D8,Class.name)
# A tibble: 38 × 2
   Class.name     n
        <chr> <int>
1                54
2    CCPX4150     1
3     EDP7500     1
4    EDPA5023     1
5    EDPA6027     2
6    EDPA6030     1
7    EDPE4058     1
8    EDPE6900     1
9       G4050     1
10     GR5705     1
# ... with 28 more rows
…
