Assignment-2.utf8.md
…
Since our data represnts every time a teacher sends a student to the principal there are multiple rows when the same teacher sends the same student. We want to collapse these into a single row, with a variable that shows how many times a teacher-student pair appears.

EDGE <- count(D2, tid, stid)
EDGE

## # A tibble: 41 x 3
##    tid   stid      n
##    <fct> <fct> <int>
##  1 A     2         1
##  2 A     3         1
##  3 A     4         2
##  4 A     5         1
##  5 A     18        1
##  6 A     22        1
##  7 A     25        2
##  8 B     1         2
##  9 B     5         1
## 10 B     8         1
## #  with 31 more rows

names(EDGE) <- c("from", "to", "count")
EDGE

## # A tibble: 41 x 3
##    from  to    count
##    <fct> <fct> <int>
##  1 A     2         1
##  2 A     3         1
##  3 A     4         2
##  4 A     5         1
##  5 A     18        1
##  6 A     22        1
##  7 A     25        2
##  8 B     1         2
##  9 B     5         1
## 10 B     8         1
## #  with 31 more rows
…
