HUDK4050-Assignment 2
…
# num of disciplinary actions: teachers
disc_stu <- EDGE %>%
  group_by(to) %>%
  summarize(sum_disc = sum(count)) %>%
  arrange(desc(sum_disc)) 
names(disc_stu) <- c("id", "num_disc")
disc_stu

## # A tibble: 25 x 2
##    id    num_disc
##    <chr>    <int>
##  1 29           8
##  2 25           5
##  3 1            3
##  4 26           3
##  5 4            3
##  6 5            3
##  7 9            3
##  8 10           2
##  9 15           2
## 10 18           2
## #  with 15 more rows

# merge the num of disciplinary actions of students & teachers
disc_all <- rbind(disc_tch, disc_stu)
disc_all

## # A tibble: 30 x 2
##    id    num_disc
##    <fct>    <int>
##  1 B           19
##  2 D           12
##  3 A            9
##  4 C            8
##  5 E            8
##  6 29           8
##  7 25           5
##  8 1            3
##  9 26           3
## 10 4            3
## #  with 20 more rows
…
